{
    "name": "Lwduai.Editor",
    "rootNamespace": "",
    "references": [
        "lwduai.Runtime",
        "Unity.Entities",
        "Unity.Entities.Hybrid",
        "Unity.Collections",
        "Unity.Mathematics",
        "Unity.Transforms",
        "Unity.Burst"
    ],
    "includePlatforms": [],
    "excludePlatforms": [],
    "allowUnsafeCode": false,
    "overrideReferences": false,
    "precompiledReferences": [],
    "autoReferenced": true,
    "defineConstraints": [
        "UNITY_EDITOR"
    ],
    "versionDefines": [],
    "noEngineReferences": false
}